{
	"name": "monster",
	"voice": "monsterfont",
	"color": "000000",
	"linespacing": 18.0,
	"sprites": {
		"!": {
			"x": 96.0,
			"y": 12.0,
			"w": 2.0,
			"h": 12.0
		},
		"#": {
			"x": 13.0,
			"y": 112.0,
			"w": 9.0,
			"h": 12.0
		},
		"$": {
			"x": 75.0,
			"y": 111.0,
			"w": 8.0,
			"h": 15.0
		},
		"%": {
			"x": 32.0,
			"y": 94.0,
			"w": 8.0,
			"h": 12.0
		},
		"'": {
			"x": 122.0,
			"y": 12.0,
			"w": 2.0,
			"h": 12.0
		},
		"(": {
			"x": 9.0,
			"y": 11.0,
			"w": 5.0,
			"h": 14.0
		},
		")": {
			"x": 16.0,
			"y": 11.0,
			"w": 5.0,
			"h": 14.0
		},
		"+": {
			"x": 63.0,
			"y": 29.0,
			"w": 8.0,
			"h": 12.0
		},
		",": {
			"x": 63.0,
			"y": 11.0,
			"w": 3.0,
			"h": 12.0
		},
		"-": {
			"x": 23.0,
			"y": 12.0,
			"w": 8.0,
			"h": 12.0
		},
		"0": {
			"x": 112.0,
			"y": 78.0,
			"w": 8.0,
			"h": 12.0
		},
		"1": {
			"x": 57.0,
			"y": 12.0,
			"w": 4.0,
			"h": 12.0
		},
		"2": {
			"x": 92.0,
			"y": 45.0,
			"w": 7.0,
			"h": 12.0
		},
		"3": {
			"x": 74.0,
			"y": 45.0,
			"w": 7.0,
			"h": 12.0
		},
		"4": {
			"x": 82.0,
			"y": 94.0,
			"w": 8.0,
			"h": 12.0
		},
		"5": {
			"x": 11.0,
			"y": 45.0,
			"w": 7.0,
			"h": 12.0
		},
		"6": {
			"x": 83.0,
			"y": 45.0,
			"w": 7.0,
			"h": 12.0
		},
		"7": {
			"x": 29.0,
			"y": 45.0,
			"w": 7.0,
			"h": 12.0
		},
		"8": {
			"x": 38.0,
			"y": 45.0,
			"w": 7.0,
			"h": 12.0
		},
		"9": {
			"x": 20.0,
			"y": 29.0,
			"w": 7.0,
			"h": 12.0
		},
		";": {
			"x": 68.0,
			"y": 11.0,
			"w": 4.0,
			"h": 12.0
		},
		"=": {
			"x": 109.0,
			"y": 29.0,
			"w": 8.0,
			"h": 12.0
		},
		"@": {
			"x": 12.0,
			"y": 94.0,
			"w": 8.0,
			"h": 12.0
		},
		"A": {
			"x": 102.0,
			"y": 94.0,
			"w": 8.0,
			"h": 12.0
		},
		"B": {
			"x": 72.0,
			"y": 94.0,
			"w": 8.0,
			"h": 12.0
		},
		"C": {
			"x": 52.0,
			"y": 78.0,
			"w": 8.0,
			"h": 12.0
		},
		"D": {
			"x": 72.0,
			"y": 62.0,
			"w": 8.0,
			"h": 12.0
		},
		"E": {
			"x": 42.0,
			"y": 94.0,
			"w": 8.0,
			"h": 12.0
		},
		"F": {
			"x": 62.0,
			"y": 94.0,
			"w": 8.0,
			"h": 12.0
		},
		"G": {
			"x": 2.0,
			"y": 78.0,
			"w": 8.0,
			"h": 12.0
		},
		"H": {
			"x": 62.0,
			"y": 62.0,
			"w": 8.0,
			"h": 12.0
		},
		"I": {
			"x": 100.0,
			"y": 12.0,
			"w": 2.0,
			"h": 12.0
		},
		"J": {
			"x": 101.0,
			"y": 29.0,
			"w": 6.0,
			"h": 12.0
		},
		"K": {
			"x": 32.0,
			"y": 62.0,
			"w": 8.0,
			"h": 12.0
		},
		"L": {
			"x": 11.0,
			"y": 29.0,
			"w": 7.0,
			"h": 12.0
		},
		"M": {
			"x": 42.0,
			"y": 62.0,
			"w": 8.0,
			"h": 12.0
		},
		"N": {
			"x": 42.0,
			"y": 78.0,
			"w": 8.0,
			"h": 12.0
		},
		"O": {
			"x": 82.0,
			"y": 78.0,
			"w": 8.0,
			"h": 12.0
		},
		"P": {
			"x": 2.0,
			"y": 62.0,
			"w": 8.0,
			"h": 12.0
		},
		"Q": {
			"x": 55.0,
			"y": 111.0,
			"w": 8.0,
			"h": 13.0,
			"by": 1.0
		},
		"R": {
			"x": 92.0,
			"y": 78.0,
			"w": 8.0,
			"h": 12.0
		},
		"S": {
			"x": 2.0,
			"y": 94.0,
			"w": 8.0,
			"h": 12.0
		},
		"T": {
			"x": 92.0,
			"y": 94.0,
			"w": 8.0,
			"h": 12.0
		},
		"U": {
			"x": 12.0,
			"y": 62.0,
			"w": 8.0,
			"h": 12.0
		},
		"V": {
			"x": 22.0,
			"y": 94.0,
			"w": 8.0,
			"h": 12.0
		},
		"W": {
			"x": 22.0,
			"y": 62.0,
			"w": 8.0,
			"h": 12.0
		},
		"Wcopyorsomethingidk": {
			"x": 24.0,
			"y": 112.0,
			"w": 9.0,
			"h": 12.0
		},
		"X": {
			"x": 22.0,
			"y": 78.0,
			"w": 8.0,
			"h": 12.0
		},
		"Y": {
			"x": 95.0,
			"y": 112.0,
			"w": 8.0,
			"h": 12.0
		},
		"Z": {
			"x": 56.0,
			"y": 45.0,
			"w": 7.0,
			"h": 12.0
		},
		"[": {
			"x": 2.0,
			"y": 11.0,
			"w": 5.0,
			"h": 14.0
		},
		"]": {
			"x": 119.0,
			"y": 28.0,
			"w": 5.0,
			"h": 14.0
		},
		"^": {
			"x": 104.0,
			"y": 13.0,
			"w": 6.0,
			"h": 12.0
		},
		"_": {
			"x": 85.0,
			"y": 111.0,
			"w": 8.0,
			"h": 12.0
		},
		"`": {
			"x": 116.0,
			"y": 13.0,
			"w": 4.0,
			"h": 12.0
		},
		"a": {
			"x": 102.0,
			"y": 78.0,
			"w": 8.0,
			"h": 8.0
		},
		"ampersand": {
			"x": 92.0,
			"y": 62.0,
			"w": 8.0,
			"h": 12.0
		},
		"asterisk": {
			"x": 43.0,
			"y": 12.0,
			"w": 6.0,
			"h": 12.0
		},
		"b": {
			"x": 52.0,
			"y": 62.0,
			"w": 8.0,
			"h": 12.0
		},
		"c": {
			"x": 32.0,
			"y": 78.0,
			"w": 8.0,
			"h": 8.0
		},
		":": {
			"x": 112.0,
			"y": 12.0,
			"w": 2.0,
			"h": 12.0
		},
		"d": {
			"x": 82.0,
			"y": 62.0,
			"w": 8.0,
			"h": 12.0
		},
		".": {
			"x": 84.0,
			"y": 12.0,
			"w": 2.0,
			"h": 12.0
		},
		"\"": {
			"x": 77.0,
			"y": 12.0,
			"w": 5.0,
			"h": 12.0
		},
		"e": {
			"x": 12.0,
			"y": 78.0,
			"w": 8.0,
			"h": 8.0
		},
		"f": {
			"x": 110.0,
			"y": 45.0,
			"w": 7.0,
			"h": 12.0
		},
		"g": {
			"x": 102.0,
			"y": 61.0,
			"w": 7.0,
			"h": 9.0,
			"by": 1.0
		},
		"h": {
			"x": 2.0,
			"y": 29.0,
			"w": 7.0,
			"h": 12.0
		},
		"i": {
			"x": 88.0,
			"y": 12.0,
			"w": 2.0,
			"h": 12.0
		},
		"j": {
			"x": 51.0,
			"y": 11.0,
			"w": 4.0,
			"h": 13.0,
			"by": 2.0
		},
		"k": {
			"x": 101.0,
			"y": 45.0,
			"w": 7.0,
			"h": 12.0
		},
		"l": {
			"x": 92.0,
			"y": 12.0,
			"w": 2.0,
			"h": 12.0
		},
		"m": {
			"x": 72.0,
			"y": 78.0,
			"w": 8.0,
			"h": 8.0
		},
		"n": {
			"x": 2.0,
			"y": 45.0,
			"w": 7.0,
			"h": 8.0
		},
		"o": {
			"x": 115.0,
			"y": 112.0,
			"w": 8.0,
			"h": 8.0
		},
		"p": {
			"x": 35.0,
			"y": 111.0,
			"w": 8.0,
			"h": 9.0,
			"by": 1.0
		},
		"|": {
			"x": 73.0,
			"y": 11.0,
			"w": 2.0,
			"h": 14.0
		},
		"q": {
			"x": 65.0,
			"y": 111.0,
			"w": 8.0,
			"h": 9.0,
			"by": 1.0
		},
		"?": {
			"x": 52.0,
			"y": 94.0,
			"w": 8.0,
			"h": 12.0
		},
		"r": {
			"x": 93.0,
			"y": 29.0,
			"w": 6.0,
			"h": 8.0
		},
		"s": {
			"x": 20.0,
			"y": 45.0,
			"w": 7.0,
			"h": 8.0
		},
		"/": {
			"x": 38.0,
			"y": 30.0,
			"w": 7.0,
			"h": 12.0
		},
		" ": {
			"x": 2.0,
			"y": 112.0,
			"w": 6.0,
			"h": 12.0
		},
		"t": {
			"x": 65.0,
			"y": 45.0,
			"w": 7.0,
			"h": 12.0
		},
		"u": {
			"x": 47.0,
			"y": 45.0,
			"w": 7.0,
			"h": 8.0
		},
		"unnamed_2015_45": {
			"x": 111.0,
			"y": 62.0,
			"w": 7.0,
			"h": 11.0
		},
		"unnamed_2015_lt": {
			"x": 73.0,
			"y": 32.0,
			"w": 8.0,
			"h": 7.0
		},
		"unnamed_2015_rt": {
			"x": 83.0,
			"y": 32.0,
			"w": 8.0,
			"h": 7.0
		},
		"v": {
			"x": 62.0,
			"y": 78.0,
			"w": 8.0,
			"h": 8.0
		},
		"w": {
			"x": 112.0,
			"y": 94.0,
			"w": 8.0,
			"h": 8.0
		},
		"x": {
			"x": 105.0,
			"y": 112.0,
			"w": 8.0,
			"h": 8.0
		},
		"y": {
			"x": 45.0,
			"y": 111.0,
			"w": 8.0,
			"h": 9.0,
			"by": 1.0
		},
		"z": {
			"x": 29.0,
			"y": 29.0,
			"w": 7.0,
			"h": 8.0
		},
		"{": {
			"x": 47.0,
			"y": 28.0,
			"w": 6.0,
			"h": 14.0
		},
		"}": {
			"x": 55.0,
			"y": 28.0,
			"w": 6.0,
			"h": 14.0
		},
		"~": {
			"x": 33.0,
			"y": 12.0,
			"w": 8.0,
			"h": 12.0
		}
	}
}
