{
	"name": "uidialoglilspace",
	"voice": "uifont",
	"color": "NONE",
	"linespacing": 30,
	"sprites": {
		"!": {
			"x": 188.0,
			"y": 108.0,
			"w": 8.0,
			"h": 20.0
		},
		"#": {
			"x": 104.0,
			"y": 228.0,
			"w": 14.0,
			"h": 18.0
		},
		"$": {
			"x": 184.0,
			"y": 224.0,
			"w": 12.0,
			"h": 26.0
		},
		"%": {
			"x": 88.0,
			"y": 228.0,
			"w": 14.0,
			"h": 18.0
		},
		"'": {
			"x": 14.0,
			"y": 74.0,
			"w": 4.0,
			"h": 18.0
		},
		"(": {
			"x": 178.0,
			"y": 108.0,
			"w": 8.0,
			"h": 18.0
		},
		")": {
			"x": 158.0,
			"y": 108.0,
			"w": 8.0,
			"h": 18.0
		},
		"+": {
			"x": 16.0,
			"y": 108.0,
			"w": 12.0,
			"h": 18.0
		},
		",": {
			"x": 238.0,
			"y": 104.0,
			"w": 4.0,
			"h": 8.0
		},
		"-": {
			"x": 134.0,
			"y": 108.0,
			"w": 12.0,
			"h": 18.0
		},
		"0": {
			"x": 114.0,
			"y": 164.0,
			"w": 12.0,
			"h": 18.0
		},
		"1": {
			"x": 58.0,
			"y": 164.0,
			"w": 12.0,
			"h": 18.0
		},
		"2": {
			"x": 240.0,
			"y": 164.0,
			"w": 12.0,
			"h": 18.0
		},
		"3": {
			"x": 156.0,
			"y": 194.0,
			"w": 12.0,
			"h": 18.0
		},
		"4": {
			"x": 100.0,
			"y": 194.0,
			"w": 12.0,
			"h": 18.0
		},
		"5": {
			"x": 44.0,
			"y": 164.0,
			"w": 12.0,
			"h": 18.0
		},
		"6": {
			"x": 170.0,
			"y": 194.0,
			"w": 12.0,
			"h": 18.0
		},
		"7": {
			"x": 226.0,
			"y": 194.0,
			"w": 12.0,
			"h": 18.0
		},
		"8": {
			"x": 2.0,
			"y": 136.0,
			"w": 12.0,
			"h": 18.0
		},
		"9": {
			"x": 184.0,
			"y": 164.0,
			"w": 12.0,
			"h": 18.0
		},
		";": {
			"x": 232.0,
			"y": 104.0,
			"w": 4.0,
			"h": 18.0
		},
		"=": {
			"x": 120.0,
			"y": 108.0,
			"w": 12.0,
			"h": 18.0
		},
		"@": {
			"x": 72.0,
			"y": 136.0,
			"w": 12.0,
			"h": 18.0
		},
		"A": {
			"x": 184.0,
			"y": 194.0,
			"w": 12.0,
			"h": 18.0
		},
		"B": {
			"x": 128.0,
			"y": 194.0,
			"w": 12.0,
			"h": 18.0
		},
		"C": {
			"x": 240.0,
			"y": 194.0,
			"w": 12.0,
			"h": 18.0
		},
		"D": {
			"x": 100.0,
			"y": 136.0,
			"w": 12.0,
			"h": 18.0
		},
		"E": {
			"x": 156.0,
			"y": 136.0,
			"w": 12.0,
			"h": 18.0
		},
		"F": {
			"x": 142.0,
			"y": 136.0,
			"w": 12.0,
			"h": 18.0
		},
		"G": {
			"x": 142.0,
			"y": 194.0,
			"w": 12.0,
			"h": 18.0
		},
		"H": {
			"x": 142.0,
			"y": 164.0,
			"w": 12.0,
			"h": 18.0
		},
		"I": {
			"x": 30.0,
			"y": 194.0,
			"w": 12.0,
			"h": 18.0
		},
		"J": {
			"x": 72.0,
			"y": 164.0,
			"w": 12.0,
			"h": 18.0
		},
		"K": {
			"x": 100.0,
			"y": 164.0,
			"w": 12.0,
			"h": 18.0
		},
		"L": {
			"x": 184.0,
			"y": 136.0,
			"w": 12.0,
			"h": 18.0
		},
		"M": {
			"x": 152.0,
			"y": 228.0,
			"w": 14.0,
			"h": 18.0
		},
		"N": {
			"x": 72.0,
			"y": 194.0,
			"w": 12.0,
			"h": 18.0
		},
		"O": {
			"x": 170.0,
			"y": 164.0,
			"w": 12.0,
			"h": 18.0
		},
		"P": {
			"x": 198.0,
			"y": 164.0,
			"w": 12.0,
			"h": 18.0
		},
		"Q": {
			"x": 198.0,
			"y": 224.0,
			"w": 12.0,
			"h": 22.0,
			"by": 4.0
		},
		"R": {
			"x": 128.0,
			"y": 164.0,
			"w": 12.0,
			"h": 18.0
		},
		"S": {
			"x": 170.0,
			"y": 136.0,
			"w": 12.0,
			"h": 18.0
		},
		"T": {
			"x": 86.0,
			"y": 164.0,
			"w": 12.0,
			"h": 18.0
		},
		"U": {
			"x": 212.0,
			"y": 164.0,
			"w": 12.0,
			"h": 18.0
		},
		"V": {
			"x": 114.0,
			"y": 136.0,
			"w": 12.0,
			"h": 18.0
		},
		"W": {
			"x": 72.0,
			"y": 228.0,
			"w": 14.0,
			"h": 18.0
		},
		"X": {
			"x": 16.0,
			"y": 194.0,
			"w": 12.0,
			"h": 18.0
		},
		"Y": {
			"x": 128.0,
			"y": 136.0,
			"w": 12.0,
			"h": 18.0
		},
		"Z": {
			"x": 2.0,
			"y": 108.0,
			"w": 12.0,
			"h": 18.0
		},
		"[": {
			"x": 168.0,
			"y": 108.0,
			"w": 8.0,
			"h": 18.0
		},
		"]": {
			"x": 148.0,
			"y": 108.0,
			"w": 8.0,
			"h": 18.0
		},
		"^": {
			"x": 206.0,
			"y": 110.0,
			"w": 12.0,
			"h": 18.0
		},
		"_": {
			"x": 78.0,
			"y": 102.0,
			"w": 8.0,
			"h": 18.0
		},
		"`": {
			"x": 20.0,
			"y": 90.0,
			"w": 6.0,
			"h": 4.0
		},
		"a": {
			"x": 156.0,
			"y": 164.0,
			"w": 12.0,
			"h": 14.0
		},
		"&": {
			"x": 136.0,
			"y": 228.0,
			"w": 14.0,
			"h": 18.0
		},
		"*": {
			"x": 212.0,
			"y": 228.0,
			"w": 16.0,
			"h": 18.0
		},
		"b": {
			"x": 58.0,
			"y": 136.0,
			"w": 12.0,
			"h": 18.0
		},
		"\\": {
			"x": 230.0,
			"y": 226.0,
			"w": 12.0,
			"h": 20.0
		},
		"c": {
			"x": 86.0,
			"y": 194.0,
			"w": 12.0,
			"h": 14.0
		},
		":": {
			"x": 244.0,
			"y": 106.0,
			"w": 4.0,
			"h": 18.0
		},
		"d": {
			"x": 212.0,
			"y": 136.0,
			"w": 12.0,
			"h": 18.0
		},
		".": {
			"x": 2.0,
			"y": 74.0,
			"w": 4.0,
			"h": 4.0
		},
		"\"": {
			"x": 220.0,
			"y": 108.0,
			"w": 10.0,
			"h": 18.0
		},
		"e": {
			"x": 2.0,
			"y": 164.0,
			"w": 12.0,
			"h": 14.0
		},
		"f": {
			"x": 16.0,
			"y": 164.0,
			"w": 12.0,
			"h": 18.0
		},
		"g": {
			"x": 2.0,
			"y": 222.0,
			"w": 12.0,
			"h": 20.0,
			"by": 6.0
		},
		"h": {
			"x": 58.0,
			"y": 194.0,
			"w": 12.0,
			"h": 18.0
		},
		"i": {
			"x": 16.0,
			"y": 136.0,
			"w": 12.0,
			"h": 20.0
		},
		"j": {
			"x": 30.0,
			"y": 222.0,
			"w": 13.0,
			"h": 26.0,
			"by": 6.0
		},
		"k": {
			"x": 240.0,
			"y": 136.0,
			"w": 12.0,
			"h": 18.0
		},
		"l": {
			"x": 226.0,
			"y": 164.0,
			"w": 12.0,
			"h": 18.0
		},
		"lt": {
			"x": 66.0,
			"y": 108.0,
			"w": 10.0,
			"h": 18.0
		},
		"m": {
			"x": 120.0,
			"y": 228.0,
			"w": 14.0,
			"h": 14.0
		},
		"n": {
			"x": 198.0,
			"y": 194.0,
			"w": 12.0,
			"h": 14.0
		},
		"o": {
			"x": 44.0,
			"y": 194.0,
			"w": 12.0,
			"h": 14.0
		},
		"p": {
			"x": 58.0,
			"y": 222.0,
			"w": 12.0,
			"h": 20.0,
			"by": 6.0
		},
		"|": {
			"x": 8.0,
			"y": 74.0,
			"w": 4.0,
			"h": 18.0
		},
		"q": {
			"x": 44.0,
			"y": 222.0,
			"w": 12.0,
			"h": 20.0,
			"by": 6.0
		},
		"?": {
			"x": 86.0,
			"y": 136.0,
			"w": 12.0,
			"h": 18.0
		},
		"r": {
			"x": 226.0,
			"y": 136.0,
			"w": 12.0,
			"h": 14.0
		},
		">": {
			"x": 30.0,
			"y": 108.0,
			"w": 10.0,
			"h": 18.0
		},
		"s": {
			"x": 44.0,
			"y": 136.0,
			"w": 12.0,
			"h": 14.0
		},
		"/": {
			"x": 2.0,
			"y": 192.0,
			"w": 12.0,
			"h": 20.0
		},
		" ": {
			"x": 0.0,
			"y": 0.0,
			"w": 4.0,
			"h": 18.0
		},
		"t": {
			"x": 212.0,
			"y": 194.0,
			"w": 12.0,
			"h": 18.0
		},
		"u": {
			"x": 198.0,
			"y": 136.0,
			"w": 12.0,
			"h": 14.0
		},
		"v": {
			"x": 30.0,
			"y": 164.0,
			"w": 12.0,
			"h": 14.0
		},
		"w": {
			"x": 168.0,
			"y": 228.0,
			"w": 14.0,
			"h": 14.0
		},
		"x": {
			"x": 114.0,
			"y": 194.0,
			"w": 12.0,
			"h": 14.0
		},
		"y": {
			"x": 16.0,
			"y": 222.0,
			"w": 12.0,
			"h": 20.0,
			"by": 6.0
		},
		"z": {
			"x": 30.0,
			"y": 136.0,
			"w": 12.0,
			"h": 14.0
		},
		"{": {
			"x": 54.0,
			"y": 108.0,
			"w": 10.0,
			"h": 18.0
		},
		"}": {
			"x": 42.0,
			"y": 108.0,
			"w": 10.0,
			"h": 18.0
		},
		"~": {
			"x": 104.0,
			"y": 108.0,
			"w": 14.0,
			"h": 18.0
		},
		"\u00e0": {
			"x": 70.0,
			"y": 74.0,
			"w": 12.0,
			"h": 20.0
		},
		"\u00e2": {
			"x": 84.0,
			"y": 74.0,
			"w": 12.0,
			"h": 20.0
		},
		"\u00e9": {
			"x": 28.0,
			"y": 74.0,
			"w": 12.0,
			"h": 20.0
		},
		"\u00e8": {
			"x": 42.0,
			"y": 74.0,
			"w": 12.0,
			"h": 20.0
		},
		"\u00ea": {
			"x": 56.0,
			"y": 74.0,
			"w": 12.0,
			"h": 20.0
		},
		"\u00eb": {
			"x": 154.0,
			"y": 74.0,
			"w": 12.0,
			"h": 18.0
		},
		"\u00ef": {
			"x": 168.0,
			"y": 74.0,
			"w": 12.0,
			"h": 18.0
		},
		"\u00ee": {
			"x": 98.0,
			"y": 74.0,
			"w": 12.0,
			"h": 20.0
		},
		"\u00f2": {
			"x": 126.0,
			"y": 74.0,
			"w": 12.0,
			"h": 20.0
		},
		"\u00f4": {
			"x": 112.0,
			"y": 74.0,
			"w": 12.0,
			"h": 20.0
		},
		"\u00f9": {
			"x": 140.0,
			"y": 74.0,
			"w": 12.0,
			"h": 20.0
		}
	}
}
